Section 2 Report
…
## # A tibble: 6 x 6
##   country     continent  year lifeExp      pop gdpPercap
##   <fct>       <fct>     <int>   <dbl>    <int>     <dbl>
## 1 Afghanistan Asia       1952    28.8  8425333      779.
## 2 Afghanistan Asia       1957    30.3  9240934      821.
## 3 Afghanistan Asia       1962    32.0 10267083      853.
## 4 Afghanistan Asia       1967    34.0 11537966      836.
## 5 Afghanistan Asia       1972    36.1 13079460      740.
## 6 Afghanistan Asia       1977    38.4 14880372      786.

#What if we just call our dataframe?

gapminder

## # A tibble: 1,704 x 6
##    country     continent  year lifeExp      pop gdpPercap
##    <fct>       <fct>     <int>   <dbl>    <int>     <dbl>
##  1 Afghanistan Asia       1952    28.8  8425333      779.
##  2 Afghanistan Asia       1957    30.3  9240934      821.
##  3 Afghanistan Asia       1962    32.0 10267083      853.
##  4 Afghanistan Asia       1967    34.0 11537966      836.
##  5 Afghanistan Asia       1972    36.1 13079460      740.
##  6 Afghanistan Asia       1977    38.4 14880372      786.
##  7 Afghanistan Asia       1982    39.9 12881816      978.
##  8 Afghanistan Asia       1987    40.8 13867957      852.
##  9 Afghanistan Asia       1992    41.7 16317921      649.
## 10 Afghanistan Asia       1997    41.8 22227415      635.
## #  with 1,694 more rows
…
gapminder$pop

That prints a lot of observations! Notice that at the beginning of the code chuck, I set results = hide. This means the code chuck will be included but the output will not be included when we compile our report. This is good because the output is really long and does not convey useful information to the reader.

What if we just want to know the 15th one? Variables in dataframes are vectors!

gapminder$pop[15]

## [1] 1728137

The distinct command tells us all of the unique values of a particular variable in a dataframe. It takes two arguements: first the dataframe and second the variable name. For example, we can discover what countries are in our dataframe this way.

distinct(gapminder, country)

## # A tibble: 142 x 1
##    country    
##    <fct>      
##  1 Afghanistan
##  2 Albania    
##  3 Algeria    
##  4 Angola     
##  5 Argentina  
##  6 Australia  
##  7 Austria    
##  8 Bahrain    
##  9 Bangladesh 
## 10 Belgium    
## #  with 132 more rows
…
class(TRUE)

## [1] "logical"

An objects class also matters for operations. Can you add a word to a number? Uncomment the following line of code in this code chunk and try it out.

# "word" + 2

This returns an error message because you cannot add 2 to a character class object.

Lets look at the classes of our variables in the gapminder data.

gapminder

## # A tibble: 1,704 x 6
##    country     continent  year lifeExp      pop gdpPercap
##    <fct>       <fct>     <int>   <dbl>    <int>     <dbl>
##  1 Afghanistan Asia       1952    28.8  8425333      779.
##  2 Afghanistan Asia       1957    30.3  9240934      821.
##  3 Afghanistan Asia       1962    32.0 10267083      853.
##  4 Afghanistan Asia       1967    34.0 11537966      836.
##  5 Afghanistan Asia       1972    36.1 13079460      740.
##  6 Afghanistan Asia       1977    38.4 14880372      786.
##  7 Afghanistan Asia       1982    39.9 12881816      978.
##  8 Afghanistan Asia       1987    40.8 13867957      852.
##  9 Afghanistan Asia       1992    41.7 16317921      649.
## 10 Afghanistan Asia       1997    41.8 22227415      635.
## #  with 1,694 more rows
…
