Section 10 Report
…
The difference in difference design makes the assumption that, had the treatment not occurred, the units that received the treatment would have had the same trend in the dependent variable as the units that did not receive the treatment. This is called the parallel trends assumption. In the Kyoto example, this means that in the hypothetical case that no countries signed Annex B, we are assuming that the countries that did sign it would have a similar change in C02 emissions before and after 1997 as countries that did not sign it.

This assumption cannot be definitively tested, but there are some ways to assess how plausible it is.

The first is to graph the trend in the dependent variable over time in the treated and untreated groups and examine whether the trend in the groups appears to be the same prior to the assignment of the treatment.

grouped.data <- merged_kyoto %>% 
  group_by(kyoto_annexb, kyoto_adopted_year, year) %>% 
  summarise(mean_emissions = mean(emissions, na.rm=TRUE))

## `summarise()` regrouping output by 'kyoto_annexb', 'kyoto_adopted_year' (override with `.groups` argument)

grouped.data

## # A tibble: 52 x 4
## # Groups:   kyoto_annexb, kyoto_adopted_year [4]
##    kyoto_annexb kyoto_adopted_year  year mean_emissions
##           <dbl>              <dbl> <dbl>          <dbl>
##  1            0                  0  1986         76583.
##  2            0                  0  1987         80129.
##  3            0                  0  1988         84474.
##  4            0                  0  1989         86409.
##  5            0                  0  1990         82519.
##  6            0                  0  1991         84209.
##  7            0                  0  1992         82971.
##  8            0                  0  1993         86161.
##  9            0                  0  1994         88066.
## 10            0                  0  1995         90676.
## #  with 42 more rows
…
