Section 6 Report
…
interpret the sign, size, and significance of the relationship between gdp and LifeExp. Note: this step is done by examining the results from the previous step.

Confidence Intervals

The upper bound of a confidence interval is the \(fitted\_value + (critical\_value \times standard\_error)\). The lower bound is the \(fitted\_value - (critical\_value \times standard\_error)\). In the T distribution, the 95% critical value is approximately 1.96.

We can use the augment() function from the broom package to create a data frame that includes the original independent and dependent variables. It includes a .fitted variable, which is the value our model predicts the dependent variable should take for that observation based on the independent variable. It also contains a .se.fit variable that expresses our uncertainty about this prediction. It also includes a .resid variable, which is the actual value of the dependent variable - our predicted value of the dependent variable. Here this is LifeExp - .fitted. You can ignore the other variables in the augmented data frame for now.

Lets make a data set of model 1 output.

model1.pred <- augment(model1.ols)

model1.pred

## # A tibble: 1,704 x 9
##    lifeExp gdpPercap .fitted .se.fit .resid    .hat .sigma .cooksd
##      <dbl>     <dbl>   <dbl>   <dbl>  <dbl>   <dbl>  <dbl>   <dbl>
##  1    28.8      779.    54.6   0.304  -25.8 8.37e-4   10.5 2.53e-3
##  2    30.3      821.    54.6   0.303  -24.3 8.34e-4   10.5 2.23e-3
##  3    32.0      853.    54.6   0.303  -22.6 8.31e-4   10.5 1.93e-3
##  4    34.0      836.    54.6   0.303  -20.6 8.33e-4   10.5 1.60e-3
##  5    36.1      740.    54.5   0.304  -18.4 8.40e-4   10.5 1.30e-3
##  6    38.4      786.    54.6   0.303  -16.1 8.37e-4   10.5 9.89e-4
##  7    39.9      978.    54.7   0.301  -14.8 8.22e-4   10.5 8.25e-4
##  8    40.8      852.    54.6   0.303  -13.8 8.32e-4   10.5 7.19e-4
##  9    41.7      649.    54.5   0.305  -12.8 8.47e-4   10.5 6.30e-4
## 10    41.8      635.    54.4   0.306  -12.7 8.48e-4   10.5 6.21e-4
## #  with 1,694 more rows, and 1 more variable: .std.resid <dbl>
…
model1.pred <- 
  mutate(model1.pred, 
         upperbound = .fitted + (.se.fit * 1.96))

We can calculate the lower bound like this.

model1.pred <- 
  mutate(model1.pred, 
         lowerbound = .fitted - (.se.fit * 1.96))

Lets check our confidence interval for each observation.

select(model1.pred, upperbound, .fitted, lowerbound)

## # A tibble: 1,704 x 3
##    upperbound .fitted lowerbound
##         <dbl>   <dbl>      <dbl>
##  1       55.1    54.6       54.0
##  2       55.2    54.6       54.0
##  3       55.2    54.6       54.0
##  4       55.2    54.6       54.0
##  5       55.1    54.5       53.9
##  6       55.2    54.6       54.0
##  7       55.3    54.7       54.1
##  8       55.2    54.6       54.0
##  9       55.1    54.5       53.9
## 10       55.0    54.4       53.8
## #  with 1,694 more rows
…
